<svg xmlns="http://www.w3.org/2000/svg" width="48" height="48" viewBox="0 0 48 48">
  <g id="Grupo_20208" data-name="Grupo 20208" transform="translate(-651 -7899.347)">
    <circle id="Elipse_1596" data-name="Elipse 1596" cx="24" cy="24" r="24" transform="translate(651 7899.347)" fill="#243328" opacity="0.181"/>
    <rect id="Retângulo_5487" data-name="Retângulo 5487" width="3.044" height="24.232" rx="1.522" transform="translate(662.884 7918.058) rotate(-90)" fill="#e5c6af"/>
    <rect id="Retângulo_5488" data-name="Retângulo 5488" width="3.044" height="24.232" rx="1.522" transform="translate(662.884 7925.058) rotate(-90)" fill="#e5c6af"/>
    <rect id="Retângulo_5489" data-name="Retângulo 5489" width="3.044" height="24.232" rx="1.522" transform="translate(662.884 7932.058) rotate(-90)" fill="#e5c6af"/>
  </g>
</svg>
