<svg xmlns="http://www.w3.org/2000/svg" width="13.036" height="13.036" viewBox="0 0 13.036 13.036">
  <g id="Group_17890" data-name="Group 17890" transform="translate(0)">
    <g id="Group_17887" data-name="Group 17887" transform="translate(0 0)">
      <g id="Group_17886" data-name="Group 17886">
        <path id="Path_75589" data-name="Path 75589" d="M131.768,117.1l5.212,5.212,3.869,3.869a1.986,1.986,0,0,0,2.808-2.808l-5.212-5.212-3.869-3.869a1.986,1.986,0,0,0-2.808,2.808Z" transform="translate(-131.195 -113.722)" fill="#144031"/>
      </g>
    </g>
    <g id="Group_17889" data-name="Group 17889">
      <g id="Group_17888" data-name="Group 17888">
        <path id="Path_75590" data-name="Path 75590" d="M140.849,114.295l-5.212,5.212-3.869,3.869a1.986,1.986,0,0,0,2.808,2.808l5.212-5.212,3.869-3.869a1.986,1.986,0,0,0-2.808-2.808Z" transform="translate(-131.195 -113.721)" fill="#144031"/>
      </g>
    </g>
  </g>
</svg>
