<svg xmlns="http://www.w3.org/2000/svg" width="289" height="390" viewBox="0 0 289 390">
  <g id="Grupo_20336" data-name="Grupo 20336" transform="translate(-138 -2202)">
    <path id="GettyImages-962546574" d="M0,0H233a56,56,0,0,1,56,56V390a0,0,0,0,1,0,0H56A56,56,0,0,1,0,334V0A0,0,0,0,1,0,0Z" transform="translate(138 2202)" fill="#a0cabc"/>
    <g id="iconfinder_lands_farm_adventure_river_house_nature_7635157" transform="translate(204 2300)">
      <path id="Caminho_83385" data-name="Caminho 83385" d="M4.935,53.4a5.226,5.226,0,0,0,5.691-1.207V76h4.929V47.714L41.388,24.23l25.918,23.5V76h4.929V52.2a5.644,5.644,0,0,0,2.687,1.5,5.023,5.023,0,0,0,5.938-4.8V42.871a4.927,4.927,0,0,0-1.619-3.652L45.433,8.568a6.011,6.011,0,0,0-8.1,0L3.614,39.224A4.93,4.93,0,0,0,2,42.871v6.023A4.929,4.929,0,0,0,4.935,53.4ZM6.929,42.871,40.645,12.221a1.124,1.124,0,0,1,1.478,0l33.81,30.652v6.023L42.122,18.243a1.121,1.121,0,0,0-1.478,0L6.929,48.895Z" transform="translate(0.464 -7)" fill="#144031"/>
      <path id="Caminho_83386" data-name="Caminho 83386" d="M42.787,37.494a7.393,7.393,0,1,0-7.393,7.393,7.393,7.393,0,0,0,7.393-7.393Zm-9.858,0a2.464,2.464,0,1,1,2.464,2.464,2.464,2.464,0,0,1-2.464-2.464Z" transform="translate(6.501 -1.636)" fill="#144031"/>
      <path id="Caminho_83387" data-name="Caminho 83387" d="M2.465,111.929H3.7A2.464,2.464,0,1,0,3.7,107H2.465a2.464,2.464,0,1,0,0,4.929Z" transform="translate(0 16.219)" fill="#144031"/>
      <path id="Caminho_83388" data-name="Caminho 83388" d="M63.431,111.929h2.547a2.464,2.464,0,1,0,0-4.929H63.431a2.464,2.464,0,1,0,0,4.929Z" transform="translate(14.156 16.219)" fill="#144031"/>
      <path id="Caminho_83389" data-name="Caminho 83389" d="M32.414,111.929h2.549a2.464,2.464,0,1,0,0-4.929H32.414a2.464,2.464,0,1,0,0,4.929Z" transform="translate(6.954 16.219)" fill="#144031"/>
      <path id="Caminho_83390" data-name="Caminho 83390" d="M11.736,107a2.464,2.464,0,1,0,0,4.929h2.547a2.464,2.464,0,1,0,0-4.929Z" transform="translate(2.153 16.219)" fill="#144031"/>
      <path id="Caminho_83391" data-name="Caminho 83391" d="M53.092,111.929H55.64a2.464,2.464,0,1,0,0-4.929H53.092a2.464,2.464,0,1,0,0,4.929Z" transform="translate(11.755 16.219)" fill="#144031"/>
      <path id="Caminho_83392" data-name="Caminho 83392" d="M42.753,111.929H45.3a2.464,2.464,0,1,0,0-4.929H42.753a2.464,2.464,0,1,0,0,4.929Z" transform="translate(9.355 16.219)" fill="#144031"/>
      <path id="Caminho_83393" data-name="Caminho 83393" d="M73.77,111.929h2.547a2.464,2.464,0,1,0,0-4.929H73.77a2.464,2.464,0,1,0,0,4.929Z" transform="translate(16.557 16.219)" fill="#144031"/>
      <path id="Caminho_83394" data-name="Caminho 83394" d="M84.109,111.929h2.547a2.464,2.464,0,1,0,0-4.929H84.109a2.464,2.464,0,1,0,0,4.929Z" transform="translate(18.958 16.219)" fill="#144031"/>
      <path id="Caminho_83395" data-name="Caminho 83395" d="M104.787,111.929h2.549a2.464,2.464,0,1,0,0-4.929h-2.549a2.464,2.464,0,1,0,0,4.929Z" transform="translate(23.759 16.219)" fill="#144031"/>
      <path id="Caminho_83396" data-name="Caminho 83396" d="M115.126,111.929h2.549a2.464,2.464,0,1,0,0-4.929h-2.549a2.464,2.464,0,1,0,0,4.929Z" transform="translate(26.159 16.219)" fill="#144031"/>
      <path id="Caminho_83397" data-name="Caminho 83397" d="M94.448,111.929H97A2.464,2.464,0,1,0,97,107H94.448a2.464,2.464,0,1,0,0,4.929Z" transform="translate(21.358 16.219)" fill="#144031"/>
      <path id="Caminho_83398" data-name="Caminho 83398" d="M22.075,111.929h2.549a2.464,2.464,0,1,0,0-4.929H22.075a2.464,2.464,0,1,0,0,4.929Z" transform="translate(4.553 16.219)" fill="#144031"/>
      <path id="Caminho_83399" data-name="Caminho 83399" d="M126.7,107h-1.232a2.464,2.464,0,1,0,0,4.929H126.7a2.464,2.464,0,1,0,0-4.929Z" transform="translate(28.56 16.219)" fill="#144031"/>
      <path id="Caminho_83400" data-name="Caminho 83400" d="M3.7,117H2.465a2.464,2.464,0,1,0,0,4.929H3.7A2.464,2.464,0,1,0,3.7,117Z" transform="translate(0 18.541)" fill="#144031"/>
      <path id="Caminho_83401" data-name="Caminho 83401" d="M14.283,117H11.736a2.464,2.464,0,1,0,0,4.929h2.547a2.464,2.464,0,1,0,0-4.929Z" transform="translate(2.153 18.541)" fill="#144031"/>
      <path id="Caminho_83402" data-name="Caminho 83402" d="M24.624,117H22.075a2.464,2.464,0,1,0,0,4.929h2.549a2.464,2.464,0,1,0,0-4.929Z" transform="translate(4.553 18.541)" fill="#144031"/>
      <path id="Caminho_83403" data-name="Caminho 83403" d="M97,117H94.448a2.464,2.464,0,0,0,0,4.929H97A2.464,2.464,0,1,0,97,117Z" transform="translate(21.358 18.541)" fill="#144031"/>
      <path id="Caminho_83404" data-name="Caminho 83404" d="M107.335,117h-2.549a2.464,2.464,0,0,0,0,4.929h2.549a2.464,2.464,0,1,0,0-4.929Z" transform="translate(23.759 18.541)" fill="#144031"/>
      <path id="Caminho_83405" data-name="Caminho 83405" d="M86.657,117H84.109a2.464,2.464,0,1,0,0,4.929h2.547a2.464,2.464,0,1,0,0-4.929Z" transform="translate(18.958 18.541)" fill="#144031"/>
      <path id="Caminho_83406" data-name="Caminho 83406" d="M34.962,117H32.414a2.464,2.464,0,1,0,0,4.929h2.549a2.464,2.464,0,1,0,0-4.929Z" transform="translate(6.954 18.541)" fill="#144031"/>
      <path id="Caminho_83407" data-name="Caminho 83407" d="M117.674,117h-2.549a2.464,2.464,0,1,0,0,4.929h2.549a2.464,2.464,0,1,0,0-4.929Z" transform="translate(26.159 18.541)" fill="#144031"/>
      <path id="Caminho_83408" data-name="Caminho 83408" d="M76.318,117H73.77a2.464,2.464,0,0,0,0,4.929h2.547a2.464,2.464,0,1,0,0-4.929Z" transform="translate(16.557 18.541)" fill="#144031"/>
      <path id="Caminho_83409" data-name="Caminho 83409" d="M55.64,117H53.092a2.464,2.464,0,1,0,0,4.929H55.64a2.464,2.464,0,1,0,0-4.929Z" transform="translate(11.755 18.541)" fill="#144031"/>
      <path id="Caminho_83410" data-name="Caminho 83410" d="M45.3,117H42.753a2.464,2.464,0,1,0,0,4.929H45.3a2.464,2.464,0,1,0,0-4.929Z" transform="translate(9.355 18.541)" fill="#144031"/>
      <path id="Caminho_83411" data-name="Caminho 83411" d="M65.979,117H63.431a2.464,2.464,0,1,0,0,4.929h2.547a2.464,2.464,0,1,0,0-4.929Z" transform="translate(14.156 18.541)" fill="#144031"/>
      <path id="Caminho_83412" data-name="Caminho 83412" d="M126.7,117h-1.232a2.464,2.464,0,0,0,0,4.929H126.7a2.464,2.464,0,1,0,0-4.929Z" transform="translate(28.56 18.541)" fill="#144031"/>
      <path id="Caminho_83413" data-name="Caminho 83413" d="M155.257,90.984a2.464,2.464,0,0,0,0-4.929H120.22a45.638,45.638,0,0,0-9.956-7.393h44.993a2.464,2.464,0,1,0,0-4.929h-4.929v-3.7a2.464,2.464,0,1,0-4.929,0v3.7h-4.929V63.667c1.723-1.808,5.545-6.455,5.545-12.113,0-7.143-6.107-12.693-6.367-12.926a2.463,2.463,0,0,0-3.287,0c-.26.233-6.364,5.782-6.364,12.925,0,5.66,3.824,10.308,5.545,12.114V73.734h-4.929v-3.7a2.464,2.464,0,0,0-4.929,0v3.7h-4.929v-3.7a2.464,2.464,0,0,0-4.929,0v3.7H110.9v-3.7a2.464,2.464,0,0,0-4.929,0v3.7H2.465a2.464,2.464,0,1,0,0,4.929H4.713c2.208.41,27.693,5.787,31.588,34.829a2.465,2.465,0,0,0,4.885-.655C38.62,93.7,27.565,83.724,18.4,78.662H27.68c2.208.41,27.694,5.787,31.59,34.829a2.518,2.518,0,0,0,2.77,2.115,2.466,2.466,0,0,0,2.115-2.771C61.587,93.7,50.532,83.724,41.362,78.662h9.285c2.208.41,27.693,5.787,31.588,34.829a2.518,2.518,0,0,0,3.649,1.823,2.466,2.466,0,0,0,1.237-2.477C84.554,93.7,73.5,83.724,64.33,78.662h9.284c2.208.41,27.694,5.787,31.59,34.829a2.465,2.465,0,1,0,4.886-.656C107.521,93.7,96.466,83.724,87.3,78.662h9.285c2.208.41,27.693,5.787,31.588,34.829a2.464,2.464,0,0,0,2.439,2.137h24.648a2.464,2.464,0,0,0,0-4.929H132.709a51.021,51.021,0,0,0-1.842-7.393h24.39a2.464,2.464,0,0,0,0-4.929H128.91a42.659,42.659,0,0,0-4.4-7.393ZM138,44.115a12.737,12.737,0,0,1,3.084,7.439A12.688,12.688,0,0,1,138,59a12.7,12.7,0,0,1-3.079-7.444A12.687,12.687,0,0,1,138,44.115Z" transform="translate(0 0.198)" fill="#144031"/>
      <path id="Caminho_83414" data-name="Caminho 83414" d="M3.94,75.49A2.464,2.464,0,1,0,.989,79.438a33.778,33.778,0,0,1,13.8,27.6,2.464,2.464,0,0,0,4.929,0A39.023,39.023,0,0,0,3.94,75.49Z" transform="translate(0 8.789)" fill="#144031"/>
      <path id="Caminho_83415" data-name="Caminho 83415" d="M89.184,21.716h.008a2.465,2.465,0,0,0,2.464-2.456l.012-3.788A2.464,2.464,0,0,0,89.213,13H89.2a2.465,2.465,0,0,0-2.464,2.456l-.012,3.788A2.464,2.464,0,0,0,89.184,21.716Z" transform="translate(20.138 -5.607)" fill="#144031"/>
      <path id="Caminho_83416" data-name="Caminho 83416" d="M75.361,25.231a2.521,2.521,0,0,0,3.485.034,2.464,2.464,0,0,0,.034-3.485l-2.288-2.333A2.464,2.464,0,0,0,73.073,22.9Z" transform="translate(16.804 -4.281)" fill="#144031"/>
      <path id="Caminho_83417" data-name="Caminho 83417" d="M79.58,20.761a2.517,2.517,0,0,0,2.863,1.988,2.464,2.464,0,0,0,1.987-2.863l-.617-3.422a2.464,2.464,0,0,0-4.849.875Z" transform="translate(18.326 -5.273)" fill="#144031"/>
      <path id="Caminho_83418" data-name="Caminho 83418" d="M69.965,29.971s3.739.755,3.9.755a2.465,2.465,0,0,0,.5-4.878l-3.4-.7a2.464,2.464,0,1,0-1,4.827Z" transform="translate(15.789 -2.799)" fill="#144031"/>
      <path id="Caminho_83419" data-name="Caminho 83419" d="M102.233,25.938a2.421,2.421,0,0,0,1.759-.708L106.28,22.9a2.464,2.464,0,1,0-3.518-3.451l-2.287,2.333a2.471,2.471,0,0,0,1.759,4.159Z" transform="translate(23.175 -4.281)" fill="#144031"/>
      <path id="Caminho_83420" data-name="Caminho 83420" d="M96.6,22.748a2.487,2.487,0,0,0,2.863-1.988l.617-3.422a2.464,2.464,0,0,0-4.849-.875l-.617,3.422A2.464,2.464,0,0,0,96.6,22.748Z" transform="translate(21.96 -5.273)" fill="#144031"/>
      <path id="Caminho_83421" data-name="Caminho 83421" d="M103.291,28.76a2.486,2.486,0,0,0,2.355,1.965c.435.007,3.5-.66,3.959-.754a2.464,2.464,0,1,0-1-4.827l-3.4.7a2.465,2.465,0,0,0-1.914,2.913Z" transform="translate(23.972 -2.799)" fill="#144031"/>
      <path id="Caminho_83422" data-name="Caminho 83422" d="M92.007,22.365l-.248,0a15.372,15.372,0,0,0-13.678,8.158,15.113,15.113,0,0,0-1.742,7.012A2.464,2.464,0,0,0,78.8,40H78.8a2.465,2.465,0,0,0,2.464-2.458,10.024,10.024,0,0,1,1.17-4.718,10.5,10.5,0,0,1,9.5-5.533,10.768,10.768,0,0,1,10.679,10.635,2.464,2.464,0,0,0,2.458,2.47h.006a2.464,2.464,0,0,0,2.464-2.458A15.715,15.715,0,0,0,92.007,22.365Z" transform="translate(17.726 -3.433)" fill="#144031"/>
      <path id="Caminho_83423" data-name="Caminho 83423" d="M47.18,66.947V48.464A2.464,2.464,0,0,0,44.715,46H27.465A2.464,2.464,0,0,0,25,48.464V66.947h4.929V50.929H42.251V66.947Z" transform="translate(5.805 2.055)" fill="#144031"/>
    </g>
  </g>
</svg>
